OFF
16 18 54
0 0 0
0 6 0
0 12 0
0 18 0
6 0 0
6 6 0
6 12 0
6 18 0
12 0 0
12 6 0
12 12 0
12 18 0
18 0 0
18 6 0
18 12 0
18 18 0
3 0 1 5
3 0 5 4
3 1 2 6
3 1 6 5
3 2 3 7
3 2 7 6
3 4 5 9
3 4 9 8
3 5 6 10
3 5 10 9
3 6 7 11
3 6 11 10
3 8 9 13
3 8 13 12
3 9 10 14
3 9 14 13
3 10 11 15
3 10 15 14